{
  "laenge": {
    "kilometer": 1000,
    "meter": 1,
    "decimeter": 0.1,
    "centimeter": 0.01,
    "millimeter": 0.001,
    "micrometer": 0.000001,
    "mile": 1609.34,
    "zoll": 0.0254,
    "inch": 0.0254
  },
  "masse": {
    "tonne": 1000,
    "kilogram": 1,
    "gram": 0.001,
    "milligram": 0.000001,
    "microgram": 0.000000001,
    "pfund": 0.5,
    "zentner": 50,
    "doppelzentner": 100
  },
  "force": {
    "newton": 1,
    "kilogram": 0.101971621,
    "gram": 9.80665
  },
  "time": {
    "year": 31536000,
    "month": 2628000,
    "week": 604800,
    "day": 86400,
    "hour": 3600,
    "minute": 60,
    "second": 1,
    "millisecond": 0.001
  },
  "area": {
    "quadratkilometer": 1000000,
    "quadratmeter": 1,
    "quadratdezimeter": 0.01,
    "quadratzentimeter": 0.0001,
    "quadratmillimeter": 0.000001,
    "hektar": 10000,
    "ar": 100,
    "morgen": 2500
  },
  "volume": {
    "kubikmeter": 1000,
    "liter": 1,
    "deziliter": 0.1,
    "zentiliter": 0.01,
    "milliliter": 0.001,
    "hektoliter": 100,
    "barrel": 158.9872949,
    "gallone": 4.54609
  }
}
